{
  "name": "TestCompany",
  "url": "https://test.de",
  "email": "testcompany@test.de",
  "logo": "testlogo",
  "contactUser": {
    "email": "test@test.de",
    "firstname": "test",
    "lastname": "tester",
    "position": "TestPosition",
    "country": "Germany",
    "role": "ADMIN",
    "experience": "STUDENT",
    "languageLevels": [
      {
        "language": "German",
        "languageSkill": "NATIVE"
      }
    ]
  },
  "address": {
    "latitude": 50.0,
    "longitude": 8.0,
    "street": "Testweg",
    "houseNumber": "1",
    "zip": "12345",
    "city": "Teststadt",
    "country": "Testland"
  },
  "jobs": [
    {
      "title": "Job 1",
      "description": "description 1",
      "jobType": "PERMANENT",
      "applicationLink": "https://test.de",
      "applicationMail": "job1@test.de",
      "videoUrl": "https://test.de",
      "address": {
        "latitude": 50.0,
        "longitude": 8.0,
        "street": "Testweg",
        "houseNumber": "1",
        "zip": "12345",
        "city": "Teststadt",
        "country": "Testland"
      },
      "languageLevels": [
        {
          "language": "German",
          "languageSkill": "NATIVE"
        }
      ],
      "classification": "TEST_CLASSIFICATION"
    }
  ]
}
